{
    "_id": "BD_PY_0096",
    "rel-link_id": "5ee9250c761cf87371cf32b6",
    "question_name": "state_parks",
    "question_path": "performance/Python/state_parks/",
    "question_type": "performance_dev",
    "topic": "Python",
    "disabled": false,
    "provisioned": 0,
    "attempts": 0,
    "passes": 0,
    "failures": 0,
    "estimated_time_to_complete": 96,
    "complexity": 2,
    "ksats": [
        "A0019",
        "A0018",
        "S0024",
        "S0023",
        "S0032",
        "S0033",
        "S0007",
        "S0052",
        "S0048",
        "S0080",
        "S0079",
        "S0081",
        "S0110",
        "S0082"
    ],
    "question": {
        "filepath": "performance/Python/state_parks/testfile.py"
    },
    "support_files": [],
    "tests": [
        {
            "filepath": "performance/Python/state_parks/runtests.py"
        }
    ],
    "solution": "performance/Python/state_parks/Solution/testfile.py",
    "dependencies": {
        "libraries": [],
        "req_software": [
            "Python 3.7"
        ]
    }
}