{
    "_id": "BD_PY_0059",
    "rel-link_id": "5ee9250c761cf87371cf329d",
    "question_name": "bit_shift",
    "question_path": "performance/Python/bit_shift/",
    "question_type": "performance_dev",
    "topic": "Python",
    "disabled": false,
    "provisioned": 0,
    "attempts": 0,
    "passes": 0,
    "failures": 0,
    "estimated_time_to_complete": 90,
    "complexity": 2,
    "ksats": [
        "A0019",
        "A0018",
        "S0030",
        "S0023",
        "S0029",
        "S0031",
        "S0032",
        "S0033",
        "S0007",
        "S0082"
    ],
    "question": {
        "filepath": "performance/Python/bit_shift/testfile.py"
    },
    "support_files": [],
    "tests": [
        {
            "filepath": "performance/Python/bit_shift/runtests.py"
        }
    ],
    "solution": "performance/Python/bit_shift/Solution/testfile.py",
    "dependencies": {
        "libraries": [],
        "req_software": [
            "Python 3.7"
        ]
    }
}