{
    "_id": "BD_C_0079",
    "rel-link_id": "5ee9250b761cf87371cf3275",
    "question_name": "format_phone_numbers",
    "question_path": "performance/C_Programming/format_phone_numbers/",
    "question_type": "performance_dev",
    "topic": "C Programming",
    "disabled": false,
    "provisioned": 0,
    "attempts": 0,
    "passes": 0,
    "failures": 0,
    "estimated_time_to_complete": 96,
    "complexity": 3,
    "ksats": [
        "A0019",
        "A0018",
        "S0034",
        "S0032",
        "S0036",
        "S0033",
        "S0007",
        "S0052",
        "S0053",
        "S0048",
        "S0079",
        "S0097",
        "S0081",
        "S0108",
        "S0110",
        "S0082",
        "S0160"
    ],
    "question": {
        "filepath": "performance/C_Programming/format_phone_numbers/Testcode.c",
        "headerpath": "performance/C_Programming/format_phone_numbers/TestCode.h"
    },
    "support_files": [],
    "tests": [
        {
            "filepath": "performance/C_Programming/format_phone_numbers/testcases.cpp"
        }
    ],
    "solution": "performance/C_Programming/format_phone_numbers/Solution/Testcode.c",
    "dependencies": {
        "libraries": [
            "gmock-1.7.0"
        ],
        "req_software": [
            "MS Visual Studio 2017"
        ]
    }
}