{
    "_id": "BD_C_0065",
    "rel-link_id": "5ee9250c761cf87371cf3298",
    "question_name": "array_manipulate",
    "question_path": "performance/C_Programming/array_manipulate/",
    "question_type": "performance_dev",
    "topic": "C Programming",
    "disabled": false,
    "provisioned": 0,
    "attempts": 0,
    "passes": 0,
    "failures": 0,
    "estimated_time_to_complete": 96,
    "complexity": 3,
    "ksats": [
        "A0087",
        "A0018",
        "S0029",
        "S0034",
        "S0031",
        "S0035",
        "S0032",
        "S0033",
        "S0007",
        "S0052",
        "S0048",
        "S0079",
        "S0099",
        "S0097",
        "S0081",
        "S0108",
        "S0082"
    ],
    "question": {
        "filepath": "performance/C_Programming/array_manipulate/TestCode.c",
        "headerpath": "performance/C_Programming/array_manipulate/TestCode.h"
    },
    "support_files": [
        "performance/C_Programming/array_manipulate/README.md",
        "performance/C_Programming/array_manipulate/CMakeLists.txt",
        "performance/C_Programming/array_manipulate/pipeline.yml"
    ],
    "tests": [
        {
            "filepath": "performance/C_Programming/array_manipulate/testcases.cpp"
        }
    ],
    "solution": "performance/C_Programming/array_manipulate/Solution/TestCode.c",
    "dependencies": {
        "libraries": [
            "gmock-1.7.0"
        ],
        "req_software": [
            "MS Visual Studio Code"
        ]
    }
}