{
    "_id": "CCD_PSEU_0002",
    "rel-link_id": "606e1955be82c30a1187b1c7",
    "question_name": "pseudo_journal",
    "question_path": "performance/Pseudocode/pseudo_journal/",
    "question_type": "performance_dev",
    "topic": "Psuedocode",
    "disabled": false,
    "provisioned": 0,
    "attempts": 0,
    "passes": 0,
    "failures": 0,
    "estimated_time_to_complete": 60,
    "complexity": 3,
    "ksats": [
        "A0004",
        "A0018",
        "S0171",
        "S0172"
    ],
    "question": {
        "filepath": "performance/Psuedocode/psuedo_journal/journal.md"
    },
    "support_files": [
        "performance/Psuedocode/psuedo_journal/README.md",
        "performance/Psuedocode/psuedo_journal/Solution/Rubric.md"
    ],
    "tests": [],
    "solution": "performance/Psuedocode/psuedo_journal/Solution/README.md",
    "dependencies": {
        "libraries": [],
        "req_software": []
    }
}