{
    "_id": "BD_RE_0002",
    "rel-link_id": "5ee9250c761cf87371cf32cc",
    "question_name": "NOSCHEMABasic_MysteryArg",
    "question_path": "performance/Reverse_Engineering/NOSCHEMABasic_MysteryArg/",
    "question_type": "performance_dev",
    "topic": "Reverse Engineering",
    "disabled": false,
    "provisioned": 0,
    "attempts": 0,
    "passes": 0,
    "failures": 0,
    "estimated_time_to_complete": 96,
    "complexity": 2,
    "ksats": [
        "A0343",
        "A0610",
        "A0611",
        "A0609",
        "S0179",
        "S0180"
    ],
    "question": {
        "filepath": "performance/Reverse_Engineering/NOSCHEMABasic_MysteryArg/Instructions.txt"
    },
    "support_files": [
        "performance/Reverse_Engineering/NOSCHEMABasic_MysteryArg/BD_RE_1_mysteryargs.exe"
    ],
    "tests": [],
    "solution": "None Provided",
    "dependencies": {
        "libraries": [],
        "req_software": [
            "IDA Pro",
            "WinDBG"
        ]
    }
}