{
    "_id": "BD_C_0131",
    "rel-link_id": "5ee9250c761cf87371cf3296",
    "question_name": "general_tree",
    "question_path": "performance/C_Programming/general_tree/",
    "question_type": "performance_dev",
    "topic": "C Programming",
    "disabled": true,
    "provisioned": 0,
    "attempts": 0,
    "passes": 0,
    "failures": 0,
    "estimated_time_to_complete": 96,
    "complexity": 4,
    "ksats": [
        "A0019",
        "A0018",
        "S0029",
        "S0034",
        "S0031",
        "S0035",
        "S0032",
        "S0007",
        "S0073",
        "S0052",
        "S0072",
        "S0059",
        "S0053",
        "S0048",
        "S0079",
        "S0097",
        "S0081",
        "S0108",
        "S0082",
        "S0160"
    ],
    "question": {
        "filepath": "performance/C_Programming/general_tree/TestCode.c",
        "headerpath": "performance/C_Programming/general_tree/TestCode.h"
    },
    "support_files": [],
    "tests": [
        {
            "filepath": "performance/C_Programming/general_tree/testcases.cpp"
        }
    ],
    "solution": "performance/C_Programming/general_tree/Solution/TestCode.c",
    "dependencies": {
        "libraries": [
            "gmock-1.7.0"
        ],
        "req_software": [
            "MS Visual Studio 2017"
        ]
    }
}