{
    "_id": "BD_PY_0080",
    "rel-link_id": "5ee9250c761cf87371cf32c3",
    "question_name": "python_linked_list",
    "question_path": "performance/Python/python_linked_list/",
    "question_type": "performance_dev",
    "topic": "Python",
    "disabled": false,
    "provisioned": 0,
    "attempts": 0,
    "passes": 0,
    "failures": 0,
    "estimated_time_to_complete": 90,
    "complexity": 3,
    "ksats": [
        "A0019",
        "A0018",
        "A0561",
        "S0382",
        "S0024",
        "S0023",
        "S0031",
        "S0032",
        "S0033",
        "S0007",
        "S0066",
        "S0065",
        "S0052",
        "S0055",
        "S0048",
        "S0081",
        "S0082"
    ],
    "question": {
        "filepath": "performance/Python/python_linked_list/testfile.py"
    },
    "support_files": [],
    "tests": [
        {
            "filepath": "performance/Python/python_linked_list/runtests.py"
        }
    ],
    "solution": "performance/Python/python_linked_list/Solution/testfile.py",
    "dependencies": {
        "libraries": [],
        "req_software": [
            "Python 3.7"
        ]
    }
}