{
    "_id": "BD_PY_0121",
    "rel-link_id": "5f078537169b319d269208e0",
    "question_name": "filter_substring",
    "question_path": "performance/Python/filter_substring/",
    "question_type": "performance_dev",
    "topic": "Python",
    "disabled": false,
    "provisioned": 0,
    "attempts": 0,
    "passes": 0,
    "failures": 0,
    "estimated_time_to_complete": 90,
    "complexity": 3,
    "ksats": [
        "A0061",
        "A0019",
        "A0018",
        "S0024",
        "S0023",
        "S0032",
        "S0007",
        "S0052",
        "S0048",
        "S0081",
        "S0082"
    ],
    "question": {
        "filepath": "performance/Python/filter_substring/testfile.py"
    },
    "support_files": [],
    "tests": [
        {
            "filepath": "performance/Python/filter_substring/runtests.py"
        }
    ],
    "solution": "performance/Python/filter_substring/Solution/testfile.py",
    "dependencies": {
        "libraries": [],
        "req_software": [
            "Python 3.7"
        ]
    }
}